{
	"type": "object",
	"title": "Salesforce Extractor",
	"additionalProperties": false,
	"properties": {
		"username": {
			"title": "Username",
			"type": "string"
		},
		"password": {
			"title": "Password",
			"type": "string",
			"format": "password"
		},
		"security-token": {
			"title": "Security token",
			"description": "Setup > Personal Setup > My Personal Information > Reset My Security Token",
			"type": "string",
			"format": "password"
		},
		"client-id": {
			"title": "Client ID",
			"type": "string"
		},
		"client-secret": {
			"title": "Client secret",
			"type": "string",
			"format": "password"
		},
		"debug": {
			"title": "Debug mode",
			"description": "Increase verbosity",
			"type": "boolean",
			"default": false
		},
		"base": {
			"title": "Base URL",
			"description": "URL your Salesforce instance is running at",
			"type": "string",
			"options": {
				"inputAttributes": {
					"placeholder": "https://my-instance.my.salesforce.com"
				}
			}
		},
		"endpoints": {
			"type": "array",
			"format": "table",
			"title": "Endpoints",
			"description": "List of SObject endpoints you want to download",
			"items": {
				"type": "object",
				"format": "grid",
				"title": "Endpoint",
				"properties": {
					"name": {
						"title": "Name",
						"description": "Output table name for endpoint",
						"options": {
							"inputAttributes": {
								"placeholder": "opportunity"
							}
						},
						"type": "string"
					},
					"endpoint": {
						"title": "Endpoint",
						"links": [
							{
								"rel": "See more in README.md",
								"href": "https://gitlab.com/bizztreat/extractor/bizzflow-ex-poc#endpoints-explanation"
							}
						],
						"type": "string"
					}
				}
			}
		}
	}
}